cpu/simulation/qsim/cpu.msim.vcd
$comment
	File created using the following command:
		vcd file cpu.msim.vcd -direction
$end
$date
	Sat Sep 05 15:42:45 2020
$end
$version
	ModelSim Version 10.1d
$end
$timescale
	1ps
$end
$scope module vga_vlg_vec_tst $end
$var reg 1 ! CLK $end
$var reg 16 " treg_D_SDRAM [15:0] $end
$var wire 1 # A_SDRAM [11] $end
$var wire 1 $ A_SDRAM [10] $end
$var wire 1 % A_SDRAM [9] $end
$var wire 1 & A_SDRAM [8] $end
$var wire 1 ' A_SDRAM [7] $end
$var wire 1 ( A_SDRAM [6] $end
$var wire 1 ) A_SDRAM [5] $end
$var wire 1 * A_SDRAM [4] $end
$var wire 1 + A_SDRAM [3] $end
$var wire 1 , A_SDRAM [2] $end
$var wire 1 - A_SDRAM [1] $end
$var wire 1 . A_SDRAM [0] $end
$var wire 1 / BLUE $end
$var wire 1 0 BS [1] $end
$var wire 1 1 BS [0] $end
$var wire 1 2 CAS_SDRAM $end
$var wire 1 3 CKE_SDRAM $end
$var wire 1 4 CLK_SDRAM $end
$var wire 1 5 CS_SDRAM $end
$var wire 1 6 D_SDRAM [15] $end
$var wire 1 7 D_SDRAM [14] $end
$var wire 1 8 D_SDRAM [13] $end
$var wire 1 9 D_SDRAM [12] $end
$var wire 1 : D_SDRAM [11] $end
$var wire 1 ; D_SDRAM [10] $end
$var wire 1 < D_SDRAM [9] $end
$var wire 1 = D_SDRAM [8] $end
$var wire 1 > D_SDRAM [7] $end
$var wire 1 ? D_SDRAM [6] $end
$var wire 1 @ D_SDRAM [5] $end
$var wire 1 A D_SDRAM [4] $end
$var wire 1 B D_SDRAM [3] $end
$var wire 1 C D_SDRAM [2] $end
$var wire 1 D D_SDRAM [1] $end
$var wire 1 E D_SDRAM [0] $end
$var wire 1 F GREEN $end
$var wire 1 G H_SYNC $end
$var wire 1 H LDQM_SDRAM $end
$var wire 1 I RAS_SDRAM $end
$var wire 1 J RED $end
$var wire 1 K UDQM_SDRAM $end
$var wire 1 L V_SYNC $end
$var wire 1 M WE_SDRAM $end
$var wire 1 N sampler $end
$scope module i1 $end
$var wire 1 O gnd $end
$var wire 1 P vcc $end
$var wire 1 Q unknown $end
$var tri1 1 R devclrn $end
$var tri1 1 S devpor $end
$var tri1 1 T devoe $end
$var wire 1 U D_SDRAM[15]~input_o $end
$var wire 1 V D_SDRAM[14]~input_o $end
$var wire 1 W D_SDRAM[13]~input_o $end
$var wire 1 X D_SDRAM[12]~input_o $end
$var wire 1 Y D_SDRAM[11]~input_o $end
$var wire 1 Z D_SDRAM[10]~input_o $end
$var wire 1 [ D_SDRAM[9]~input_o $end
$var wire 1 \ D_SDRAM[8]~input_o $end
$var wire 1 ] D_SDRAM[7]~input_o $end
$var wire 1 ^ D_SDRAM[6]~input_o $end
$var wire 1 _ D_SDRAM[5]~input_o $end
$var wire 1 ` D_SDRAM[4]~input_o $end
$var wire 1 a D_SDRAM[3]~input_o $end
$var wire 1 b D_SDRAM[15]~output_o $end
$var wire 1 c D_SDRAM[14]~output_o $end
$var wire 1 d D_SDRAM[13]~output_o $end
$var wire 1 e D_SDRAM[12]~output_o $end
$var wire 1 f D_SDRAM[11]~output_o $end
$var wire 1 g D_SDRAM[10]~output_o $end
$var wire 1 h D_SDRAM[9]~output_o $end
$var wire 1 i D_SDRAM[8]~output_o $end
$var wire 1 j D_SDRAM[7]~output_o $end
$var wire 1 k D_SDRAM[6]~output_o $end
$var wire 1 l D_SDRAM[5]~output_o $end
$var wire 1 m D_SDRAM[4]~output_o $end
$var wire 1 n D_SDRAM[3]~output_o $end
$var wire 1 o D_SDRAM[2]~output_o $end
$var wire 1 p D_SDRAM[1]~output_o $end
$var wire 1 q D_SDRAM[0]~output_o $end
$var wire 1 r H_SYNC~output_o $end
$var wire 1 s V_SYNC~output_o $end
$var wire 1 t LDQM_SDRAM~output_o $end
$var wire 1 u UDQM_SDRAM~output_o $end
$var wire 1 v CKE_SDRAM~output_o $end
$var wire 1 w CLK_SDRAM~output_o $end
$var wire 1 x CS_SDRAM~output_o $end
$var wire 1 y RAS_SDRAM~output_o $end
$var wire 1 z CAS_SDRAM~output_o $end
$var wire 1 { WE_SDRAM~output_o $end
$var wire 1 | RED~output_o $end
$var wire 1 } GREEN~output_o $end
$var wire 1 ~ BLUE~output_o $end
$var wire 1 !! A_SDRAM[11]~output_o $end
$var wire 1 "! A_SDRAM[10]~output_o $end
$var wire 1 #! A_SDRAM[9]~output_o $end
$var wire 1 $! A_SDRAM[8]~output_o $end
$var wire 1 %! A_SDRAM[7]~output_o $end
$var wire 1 &! A_SDRAM[6]~output_o $end
$var wire 1 '! A_SDRAM[5]~output_o $end
$var wire 1 (! A_SDRAM[4]~output_o $end
$var wire 1 )! A_SDRAM[3]~output_o $end
$var wire 1 *! A_SDRAM[2]~output_o $end
$var wire 1 +! A_SDRAM[1]~output_o $end
$var wire 1 ,! A_SDRAM[0]~output_o $end
$var wire 1 -! BS[1]~output_o $end
$var wire 1 .! BS[0]~output_o $end
$var wire 1 /! CLK~input_o $end
$var wire 1 0! CLK~inputclkctrl_outclk $end
$var wire 1 1! inst|Add0~0_combout $end
$var wire 1 2! inst29|Add0~0_combout $end
$var wire 1 3! inst29|data_next~1_combout $end
$var wire 1 4! inst29|data[1]~6_combout $end
$var wire 1 5! inst29|data_next~0_combout $end
$var wire 1 6! inst173|inst4~0_combout $end
$var wire 1 7! inst180|data[0]~11_combout $end
$var wire 1 8! inst173|inst4~2_combout $end
$var wire 1 9! inst180|data[4]~27_combout $end
$var wire 1 :! inst180|data[0]~12 $end
$var wire 1 ;! inst180|data[1]~13_combout $end
$var wire 1 <! inst180|data[1]~14 $end
$var wire 1 =! inst180|data[2]~15_combout $end
$var wire 1 >! inst180|data[2]~16 $end
$var wire 1 ?! inst180|data[3]~17_combout $end
$var wire 1 @! inst180|data[3]~18 $end
$var wire 1 A! inst180|data[4]~19_combout $end
$var wire 1 B! inst180|data[4]~20 $end
$var wire 1 C! inst180|data[5]~21_combout $end
$var wire 1 D! inst180|data[5]~22 $end
$var wire 1 E! inst180|data[6]~23_combout $end
$var wire 1 F! inst180|data[6]~24 $end
$var wire 1 G! inst180|data[7]~25_combout $end
$var wire 1 H! inst180|data[7]~26 $end
$var wire 1 I! inst180|data[8]~28_combout $end
$var wire 1 J! inst180|data[8]~29 $end
$var wire 1 K! inst180|data[9]~30_combout $end
$var wire 1 L! inst180|data[9]~31 $end
$var wire 1 M! inst180|data[10]~32_combout $end
$var wire 1 N! inst31|Equal0~2_combout $end
$var wire 1 O! inst31|Equal0~1_combout $end
$var wire 1 P! inst31|Equal0~0_combout $end
$var wire 1 Q! inst31|Equal0~3_combout $end
$var wire 1 R! inst46|data[0]~27_combout $end
$var wire 1 S! inst46|data[1]~9_combout $end
$var wire 1 T! inst46|data[1]~10 $end
$var wire 1 U! inst46|data[2]~11_combout $end
$var wire 1 V! inst46|data[2]~12 $end
$var wire 1 W! inst46|data[3]~13_combout $end
$var wire 1 X! inst46|data[3]~14 $end
$var wire 1 Y! inst46|data[4]~15_combout $end
$var wire 1 Z! inst46|data[4]~16 $end
$var wire 1 [! inst46|data[5]~17_combout $end
$var wire 1 \! inst46|data[5]~18 $end
$var wire 1 ]! inst46|data[6]~19_combout $end
$var wire 1 ^! inst40|Equal0~1_combout $end
$var wire 1 _! inst46|data[6]~20 $end
$var wire 1 `! inst46|data[7]~21_combout $end
$var wire 1 a! inst46|data[7]~22 $end
$var wire 1 b! inst46|data[8]~23_combout $end
$var wire 1 c! inst46|data[8]~24 $end
$var wire 1 d! inst46|data[9]~25_combout $end
$var wire 1 e! inst40|Equal0~0_combout $end
$var wire 1 f! inst40|Equal0~2_combout $end
$var wire 1 g! inst214~combout $end
$var wire 1 h! inst29|data_next~3_combout $end
$var wire 1 i! inst173|inst4~3_combout $end
$var wire 1 j! inst29|data_next~2_combout $end
$var wire 1 k! inst173|inst4~8_combout $end
$var wire 1 l! inst|Add0~3 $end
$var wire 1 m! inst|Add0~4_combout $end
$var wire 1 n! inst|Add0~5 $end
$var wire 1 o! inst|Add0~6_combout $end
$var wire 1 p! inst|data[3]~2_combout $end
$var wire 1 q! inst|Add0~7 $end
$var wire 1 r! inst|Add0~8_combout $end
$var wire 1 s! inst|data[4]~7_combout $end
$var wire 1 t! inst|Add0~9 $end
$var wire 1 u! inst|Add0~10_combout $end
$var wire 1 v! inst|data[5]~6_combout $end
$var wire 1 w! inst|Add0~11 $end
$var wire 1 x! inst|Add0~12_combout $end
$var wire 1 y! inst|data[6]~1_combout $end
$var wire 1 z! inst|Add0~13 $end
$var wire 1 {! inst|Add0~14_combout $end
$var wire 1 |! inst|data[7]~0_combout $end
$var wire 1 }! inst|Add0~15 $end
$var wire 1 ~! inst|Add0~16_combout $end
$var wire 1 !" inst|data[8]~9_combout $end
$var wire 1 "" inst|Add0~17 $end
$var wire 1 #" inst|Add0~18_combout $end
$var wire 1 $" inst|data[9]~10_combout $end
$var wire 1 %" inst|Add0~19 $end
$var wire 1 &" inst|Add0~20_combout $end
$var wire 1 '" inst|data[10]~8_combout $end
$var wire 1 (" inst23~0_combout $end
$var wire 1 )" inst7|LessThan1~0_combout $end
$var wire 1 *" inst7|LessThan1~1_combout $end
$var wire 1 +" inst23~1_combout $end
$var wire 1 ," inst|data[2]~5_combout $end
$var wire 1 -" inst181|inst17|cout~0_combout $end
$var wire 1 ." inst119|LessThan1~0_combout $end
$var wire 1 /" inst22|LessThan0~0_combout $end
$var wire 1 0" inst105|Equal0~0_combout $end
$var wire 1 1" inst24~combout $end
$var wire 1 2" inst|data[0]~3_combout $end
$var wire 1 3" inst|Add0~1 $end
$var wire 1 4" inst|Add0~2_combout $end
$var wire 1 5" inst|data[1]~4_combout $end
$var wire 1 6" inst22|LessThan0~1_combout $end
$var wire 1 7" inst119|LessThan1~1_combout $end
$var wire 1 8" inst99|LessThan1~0_combout $end
$var wire 1 9" inst99|LessThan1~1_combout $end
$var wire 1 :" inst99|LessThan1~2_combout $end
$var wire 1 ;" inst1|Add0~0_combout $end
$var wire 1 <" inst1|data[0]~4_combout $end
$var wire 1 =" inst1|Add0~1 $end
$var wire 1 >" inst1|Add0~2_combout $end
$var wire 1 ?" inst1|data[1]~5_combout $end
$var wire 1 @" inst1|Add0~3 $end
$var wire 1 A" inst1|Add0~4_combout $end
$var wire 1 B" inst1|data[2]~6_combout $end
$var wire 1 C" inst1|Add0~5 $end
$var wire 1 D" inst1|Add0~6_combout $end
$var wire 1 E" inst1|data[3]~8_combout $end
$var wire 1 F" inst1|Add0~7 $end
$var wire 1 G" inst1|Add0~9 $end
$var wire 1 H" inst1|Add0~10_combout $end
$var wire 1 I" inst1|data[5]~7_combout $end
$var wire 1 J" inst1|Add0~11 $end
$var wire 1 K" inst1|Add0~12_combout $end
$var wire 1 L" inst1|data[6]~2_combout $end
$var wire 1 M" inst1|Add0~13 $end
$var wire 1 N" inst1|Add0~14_combout $end
$var wire 1 O" inst1|data[7]~3_combout $end
$var wire 1 P" inst1|Add0~15 $end
$var wire 1 Q" inst1|Add0~16_combout $end
$var wire 1 R" inst1|data[8]~0_combout $end
$var wire 1 S" inst1|Add0~17 $end
$var wire 1 T" inst1|Add0~18_combout $end
$var wire 1 U" inst1|data[9]~1_combout $end
$var wire 1 V" inst30|Equal0~2_combout $end
$var wire 1 W" inst30|Equal0~0_combout $end
$var wire 1 X" inst30|Equal0~3_combout $end
$var wire 1 Y" inst1|Add0~8_combout $end
$var wire 1 Z" inst1|data[4]~9_combout $end
$var wire 1 [" inst27|LessThan1~0_combout $end
$var wire 1 \" inst27|LessThan1~2_combout $end
$var wire 1 ]" inst27|LessThan1~1_combout $end
$var wire 1 ^" inst101~0_combout $end
$var wire 1 _" inst101~combout $end
$var wire 1 `" inst151~0_combout $end
$var wire 1 a" inst190~combout $end
$var wire 1 b" inst151~combout $end
$var wire 1 c" inst27|Equal0~0_combout $end
$var wire 1 d" inst30|Equal0~1_combout $end
$var wire 1 e" inst10~2_combout $end
$var wire 1 f" inst140~0_combout $end
$var wire 1 g" inst27|LessThan1~3_combout $end
$var wire 1 h" inst140~1_combout $end
$var wire 1 i" inst34|inst14|Y[8]~2_combout $end
$var wire 1 j" inst173|inst4~1_combout $end
$var wire 1 k" inst140~2_combout $end
$var wire 1 l" inst238~combout $end
$var wire 1 m" inst115~0_combout $end
$var wire 1 n" inst119|LessThan1~2_combout $end
$var wire 1 o" inst122~0_combout $end
$var wire 1 p" inst117|LessThan1~0_combout $end
$var wire 1 q" inst122~combout $end
$var wire 1 r" inst197~0_combout $end
$var wire 1 s" inst29|data[1]~5_combout $end
$var wire 1 t" inst239~0_combout $end
$var wire 1 u" inst239~1_combout $end
$var wire 1 v" inst154|inst~0_combout $end
$var wire 1 w" inst150|Y[1]~1_combout $end
$var wire 1 x" inst173|inst4~4_combout $end
$var wire 1 y" inst154|inst11~0_combout $end
$var wire 1 z" inst154|inst11~1_combout $end
$var wire 1 {" inst150|Y[2]~0_combout $end
$var wire 1 |" inst34|inst7|inst3~0_combout $end
$var wire 1 }" inst10~1_combout $end
$var wire 1 ~" inst10~0_combout $end
$var wire 1 !# inst10~3_combout $end
$var wire 1 "# inst15~3_combout $end
$var wire 1 ## inst15~1_combout $end
$var wire 1 $# inst15~2_combout $end
$var wire 1 %# inst15~0_combout $end
$var wire 1 &# inst15~4_combout $end
$var wire 1 '# inst34|inst~0_combout $end
$var wire 1 (# inst34|inst~1_combout $end
$var wire 1 )# inst34|inst9~0_combout $end
$var wire 1 *# inst34|inst17~0_combout $end
$var wire 1 +# D_SDRAM[0]~input_o $end
$var wire 1 ,# inst25~combout $end
$var wire 1 -# D_SDRAM[1]~input_o $end
$var wire 1 .# inst35~combout $end
$var wire 1 /# D_SDRAM[2]~input_o $end
$var wire 1 0# inst39~combout $end
$var wire 1 1# inst34|inst14|Y[10]~3_combout $end
$var wire 1 2# inst229~0_combout $end
$var wire 1 3# inst228~0_combout $end
$var wire 1 4# inst34|inst14|Y[9]~5_combout $end
$var wire 1 5# inst34|inst14|Y[9]~4_combout $end
$var wire 1 6# inst111|Equal0~0_combout $end
$var wire 1 7# inst34|inst14|Y[7]~7_combout $end
$var wire 1 8# inst34|inst14|Y[7]~6_combout $end
$var wire 1 9# inst232~combout $end
$var wire 1 :# inst183|inst16|cout~0_combout $end
$var wire 1 ;# inst183|inst13|cout~0_combout $end
$var wire 1 <# inst183|inst10|result~0_combout $end
$var wire 1 =# inst34|inst14|Y[9]~8_combout $end
$var wire 1 ># inst34|inst14|Y[9]~9_combout $end
$var wire 1 ?# inst34|inst14|Y[8]~10_combout $end
$var wire 1 @# inst183|inst11|result~0_combout $end
$var wire 1 A# inst34|inst14|Y[8]~11_combout $end
$var wire 1 B# inst34|inst14|Y[8]~12_combout $end
$var wire 1 C# inst34|inst14|Y[7]~14_combout $end
$var wire 1 D# inst34|inst14|Y[7]~13_combout $end
$var wire 1 E# inst181|inst14|cout~0_combout $end
$var wire 1 F# inst34|inst14|Y[7]~17_combout $end
$var wire 1 G# inst34|inst14|Y[7]~15_combout $end
$var wire 1 H# inst34|inst14|Y[7]~16_combout $end
$var wire 1 I# inst34|inst14|Y[7]~18_combout $end
$var wire 1 J# inst34|inst14|Y[7]~19_combout $end
$var wire 1 K# inst183|inst13|result~0_combout $end
$var wire 1 L# inst34|inst14|Y[6]~21_combout $end
$var wire 1 M# inst34|inst14|Y[6]~20_combout $end
$var wire 1 N# inst34|inst14|Y[6]~22_combout $end
$var wire 1 O# inst183|inst14|result~0_combout $end
$var wire 1 P# inst34|inst14|Y[5]~23_combout $end
$var wire 1 Q# inst181|inst14|result~0_combout $end
$var wire 1 R# inst34|inst14|Y[5]~24_combout $end
$var wire 1 S# inst34|inst14|Y[0]~25_combout $end
$var wire 1 T# inst34|inst14|Y[5]~26_combout $end
$var wire 1 U# inst34|inst14|Y[4]~27_combout $end
$var wire 1 V# inst181|inst15|result~0_combout $end
$var wire 1 W# inst34|inst14|Y[4]~28_combout $end
$var wire 1 X# inst34|inst14|Y[4]~29_combout $end
$var wire 1 Y# inst183|inst16|result~0_combout $end
$var wire 1 Z# inst34|inst14|Y[3]~30_combout $end
$var wire 1 [# inst181|inst16|result~0_combout $end
$var wire 1 \# inst34|inst14|Y[3]~31_combout $end
$var wire 1 ]# inst34|inst14|Y[3]~42_combout $end
$var wire 1 ^# inst34|inst14|Y[2]~32_combout $end
$var wire 1 _# inst34|inst14|Y[2]~33_combout $end
$var wire 1 `# inst34|inst14|Y[2]~34_combout $end
$var wire 1 a# inst34|inst14|Y[2]~35_combout $end
$var wire 1 b# inst183|inst18|result~0_combout $end
$var wire 1 c# inst34|inst14|Y[1]~36_combout $end
$var wire 1 d# inst34|inst14|Y[1]~37_combout $end
$var wire 1 e# inst34|inst14|Y[1]~38_combout $end
$var wire 1 f# inst34|inst14|Y[0]~39_combout $end
$var wire 1 g# inst34|inst14|Y[0]~40_combout $end
$var wire 1 h# inst34|inst14|Y[0]~41_combout $end
$var wire 1 i# inst226~combout $end
$var wire 1 j# inst181|inst12|cout~0_combout $end
$var wire 1 k# inst181|inst10|result~0_combout $end
$var wire 1 l# inst225~combout $end
$var wire 1 m# inst34|inst15|Y[1]~0_combout $end
$var wire 1 n# inst173|inst4~5_combout $end
$var wire 1 o# inst173|inst4~6_combout $end
$var wire 1 p# inst34|inst15|Y[1]~1_combout $end
$var wire 1 q# inst34|inst15|Y[1]~2_combout $end
$var wire 1 r# inst34|inst15|Y[1]~3_combout $end
$var wire 1 s# inst173|inst4~7_combout $end
$var wire 1 t# inst239~2_combout $end
$var wire 1 u# inst34|inst15|Y[0]~4_combout $end
$var wire 1 v# inst34|inst15|Y[0]~5_combout $end
$var wire 1 w# inst34|inst15|Y[0]~6_combout $end
$var wire 1 x# inst34|inst15|Y[0]~7_combout $end
$var wire 1 y# inst|data [10] $end
$var wire 1 z# inst|data [9] $end
$var wire 1 {# inst|data [8] $end
$var wire 1 |# inst|data [7] $end
$var wire 1 }# inst|data [6] $end
$var wire 1 ~# inst|data [5] $end
$var wire 1 !$ inst|data [4] $end
$var wire 1 "$ inst|data [3] $end
$var wire 1 #$ inst|data [2] $end
$var wire 1 $$ inst|data [1] $end
$var wire 1 %$ inst|data [0] $end
$var wire 1 &$ inst29|data [3] $end
$var wire 1 '$ inst29|data [2] $end
$var wire 1 ($ inst29|data [1] $end
$var wire 1 )$ inst29|data [0] $end
$var wire 1 *$ inst46|data [9] $end
$var wire 1 +$ inst46|data [8] $end
$var wire 1 ,$ inst46|data [7] $end
$var wire 1 -$ inst46|data [6] $end
$var wire 1 .$ inst46|data [5] $end
$var wire 1 /$ inst46|data [4] $end
$var wire 1 0$ inst46|data [3] $end
$var wire 1 1$ inst46|data [2] $end
$var wire 1 2$ inst46|data [1] $end
$var wire 1 3$ inst46|data [0] $end
$var wire 1 4$ inst180|data [10] $end
$var wire 1 5$ inst180|data [9] $end
$var wire 1 6$ inst180|data [8] $end
$var wire 1 7$ inst180|data [7] $end
$var wire 1 8$ inst180|data [6] $end
$var wire 1 9$ inst180|data [5] $end
$var wire 1 :$ inst180|data [4] $end
$var wire 1 ;$ inst180|data [3] $end
$var wire 1 <$ inst180|data [2] $end
$var wire 1 =$ inst180|data [1] $end
$var wire 1 >$ inst180|data [0] $end
$var wire 1 ?$ inst1|data [9] $end
$var wire 1 @$ inst1|data [8] $end
$var wire 1 A$ inst1|data [7] $end
$var wire 1 B$ inst1|data [6] $end
$var wire 1 C$ inst1|data [5] $end
$var wire 1 D$ inst1|data [4] $end
$var wire 1 E$ inst1|data [3] $end
$var wire 1 F$ inst1|data [2] $end
$var wire 1 G$ inst1|data [1] $end
$var wire 1 H$ inst1|data [0] $end
$upscope $end
$upscope $end
$enddefinitions $end
#0
$dumpvars
0!
bz "
0.
0-
0,
0+
0*
0)
0(
0'
0&
0%
1$
0#
0/
01
00
12
13
04
05
zE
zD
zC
zB
zA
z@
z?
z>
z=
z<
z;
z:
z9
z8
z7
z6
0F
0G
0H
0I
0J
0K
0L
0M
xN
0O
1P
xQ
1R
1S
1T
zU
zV
zW
zX
zY
zZ
z[
z\
z]
z^
z_
z`
za
zb
zc
zd
ze
zf
zg
zh
zi
zj
zk
zl
zm
zn
zo
zp
zq
0r
0s
0t
0u
1v
0w
0x
0y
1z
0{
0|
0}
0~
0!!
1"!
0#!
0$!
0%!
0&!
0'!
0(!
0)!
0*!
0+!
0,!
0-!
0.!
0/!
00!
01!
02!
03!
14!
05!
06!
17!
08!
09!
0:!
0;!
1<!
0=!
0>!
0?!
1@!
0A!
0B!
0C!
1D!
0E!
0F!
0G!
1H!
0I!
0J!
0K!
1L!
0M!
0N!
0O!
0P!
0Q!
0R!
0S!
0T!
0U!
1V!
0W!
0X!
0Y!
1Z!
0[!
0\!
0]!
0^!
1_!
0`!
0a!
0b!
1c!
0d!
0e!
0f!
0g!
0h!
0i!
1j!
0k!
1l!
0m!
0n!
1o!
0p!
1q!
0r!
0s!
0t!
0u!
0v!
1w!
0x!
0y!
0z!
0{!
0|!
1}!
0~!
0!"
0""
0#"
0$"
1%"
1&"
0'"
0("
1)"
1*"
1+"
0,"
0-"
1."
1/"
10"
01"
02"
13"
14"
05"
06"
07"
18"
09"
1:"
0;"
0<"
1="
1>"
0?"
1@"
0A"
0B"
0C"
1D"
0E"
1F"
0G"
0H"
0I"
1J"
0K"
0L"
0M"
1N"
0O"
1P"
0Q"
0R"
0S"
1T"
0U"
1V"
1W"
1X"
1Y"
0Z"
1["
1\"
0]"
0^"
0_"
1`"
1a"
1b"
0c"
1d"
0e"
0f"
0g"
0h"
1i"
1j"
1k"
1l"
0m"
1n"
0o"
0p"
0q"
1r"
1s"
0t"
0u"
1v"
0w"
0x"
0y"
1z"
1{"
0|"
1}"
0~"
1!#
1"#
0##
0$#
0%#
1&#
0'#
0(#
1)#
0*#
z+#
0,#
z-#
0.#
z/#
00#
11#
02#
13#
04#
05#
06#
17#
18#
09#
0:#
0;#
1<#
1=#
0>#
0?#
0@#
0A#
0B#
0C#
0D#
0E#
0F#
1G#
1H#
0I#
0J#
0K#
0L#
0M#
0N#
0O#
0P#
0Q#
0R#
0S#
0T#
0U#
0V#
0W#
0X#
1Y#
0Z#
1[#
1\#
0]#
0^#
0_#
0`#
0a#
1b#
0c#
1d#
0e#
1f#
1g#
0h#
0i#
0j#
0k#
0l#
0m#
0n#
0o#
0p#
0q#
0r#
0s#
1t#
0u#
0v#
0w#
0x#
0%$
0$$
0#$
0"$
0!$
0~#
0}#
0|#
0{#
0z#
0y#
0)$
0($
0'$
0&$
03$
02$
01$
00$
0/$
0.$
0-$
0,$
0+$
0*$
0>$
0=$
0<$
0;$
0:$
09$
08$
07$
06$
05$
04$
0H$
0G$
0F$
0E$
0D$
0C$
0B$
0A$
0@$
0?$
$end
#5000
1!
0N
1/!
10!
1w
14
1)$
1x"
0j"
0j!
1h!
0l"
0{"
15#
1*#
1'#
01#
0z
0"!
02
0$
1h#
1e#
1T#
1>#
1,!
1+!
1'!
1#!
1.
1-
1)
1%
#10000
0!
1N
0/!
00!
0w
04
#15000
1!
0N
1/!
10!
1w
14
0)$
1($
0x"
1j!
1y"
0z"
1?#
05#
14#
1(#
1D#
1S#
1x
15
1]#
0h#
0e#
0T#
0>#
1)!
0,!
0+!
0'!
0#!
1+
0.
0-
0)
0%
1h#
1e#
1,!
1+!
1.
1-
#20000
0!
1N
0/!
00!
0w
04
#25000
1!
0N
1/!
10!
1w
14
1)$
12#
0s"
0j!
0h!
12!
07#
03#
1u"
13!
0G#
19#
0H#
0v"
1>#
0g#
0f#
1W#
1I#
0=#
0d#
0\#
0'#
1#!
1%
1X#
1J#
1w"
0*#
1(!
1%!
1{
1*
1'
1M
0h#
0X#
0J#
0>#
0e#
0]#
0(#
1z
0,!
0(!
0%!
0#!
0+!
0)!
0x
12
0.
0*
0'
0%
0-
0+
05
#30000
0!
1N
0/!
00!
0w
04
#35000
1!
0N
1/!
10!
1w
14
0)$
0($
1'$
1s#
1j!
02!
15!
03!
1u#
05!
13!
1v#
1w#
1x#
1.!
11
#40000
0!
1N
0/!
00!
0w
04
#45000
1!
0N
1/!
10!
1w
14
1)$
0s#
1n#
0j!
1h!
0u#
1p#
0v#
1q#
0w#
1r#
1-!
10
0x#
0.!
01
#50000
0!
1N
0/!
00!
0w
04
#55000
1!
0N
1/!
10!
1w
14
0)$
1($
1o#
0n#
1j!
1u#
1v#
1w#
1x#
1.!
11
#60000
0!
1N
0/!
00!
0w
04
#65000
1!
0N
1/!
10!
1w
14
1)$
0o#
02#
1s"
0j!
1i!
0h!
19!
12!
0u#
0p#
17#
0u"
1l#
1i#
1H#
1{"
1v"
03!
15!
0v#
0q#
1G#
0w#
1f#
1d#
1c#
1\#
1Z#
0W#
1P#
0I#
1*#
1X#
1J#
0w"
0d#
0\#
0)#
0z
1(!
1%!
0{
02
1*
1'
0M
0r#
0x#
1e#
1]#
0X#
0J#
1|"
1y
0-!
0.!
1+!
1)!
0(!
0%!
1p
0b
0c
0d
0e
0f
0g
0h
0i
0j
0k
0l
0m
0n
0o
0q
1I
00
01
1-
1+
0*
0'
1D
06
07
08
09
0:
0;
0<
0=
0>
0?
0@
0A
0B
0C
0E
0e#
0]#
1-#
0U
0V
0W
0X
0Y
0Z
0[
0\
0]
0^
0_
0`
0a
0/#
0+#
0+!
0)!
0-
0+
#70000
0!
1N
0/!
00!
0w
04
#75000
1!
0N
1/!
10!
1w
14
0)$
0($
1>$
1&$
0'$
1j!
0i!
18!
02!
1g#
1:!
07!
0`"
13!
0l#
0i#
0H#
09#
13#
0{"
03!
1l"
1`"
1R!
1;!
1h#
0b"
0f#
1d#
1\#
1R#
0P#
1=#
1H#
1)#
1'#
0y"
0?#
04#
1,!
0p
1.
0D
1X#
1J#
0|"
1b"
0g#
0R#
1f#
0d#
0c#
0\#
0Z#
1z"
0D#
0S#
0-#
1?#
14#
1{"
0y
1(!
1%!
zp
zb
zc
zd
ze
zf
zg
zh
zi
zj
zk
zl
zm
zn
zo
zq
0I
1*
1'
zD
z6
z7
z8
z9
z:
z;
z<
z=
z>
z?
z@
zA
zB
zC
zE
1e#
1T#
0X#
0J#
1(#
1g#
1d#
1\#
0?#
04#
0*#
1D#
1S#
0'#
z-#
zU
zV
zW
zX
zY
zZ
z[
z\
z]
z^
z_
z`
za
z/#
z+#
1+!
1'!
0(!
0%!
1x
1-
1)
0*
0'
15
0h#
0T#
0e#
11#
0(#
0D#
0S#
1z
0,!
0'!
0+!
1"!
0x
12
0.
0)
0-
1$
05
1h#
1e#
1,!
1+!
1.
1-
0h#
0e#
0,!
0+!
0.
0-
#80000
0!
1N
0/!
00!
0w
04
#85000
1!
0N
1/!
10!
1w
14
1)$
13$
0>$
0j!
1h!
09!
08!
16!
1S!
0R!
0:!
17!
0l"
1R!
0i"
0;!
0z"
1y"
14#
1w"
1?#
1*#
1S#
1{
1M
01#
1D#
0z
0"!
02
0$
1]#
1h#
1e#
1)!
1,!
1+!
1+
1.
1-
#90000
0!
1N
0/!
00!
0w
04
#95000
1!
0N
1/!
10!
1w
14
0)$
1($
1k!
1j!
06!
04!
0+"
1i"
0`"
15"
12"
0{"
0w"
0b"
1'#
0?#
04#
0{
0M
0D#
0S#
1(#
0]#
1x
0)!
15
0+
0h#
0e#
0,!
0+!
0.
0-
#100000
0!
1N
0/!
00!
0w
04
#105000
1!
0N
1/!
10!
1w
14
1$$
1%$
0d#
1^#
08#
1t"
0k"
16"
0l!
04"
0f#
03"
11!
0G#
19#
1u"
1m!
05"
0g#
1l!
14"
02"
1b"
0H#
1g#
1f#
1c#
0^#
1Z#
1P#
0=#
0v"
1,"
0m!
15"
1?#
14#
0f#
1d#
0c#
0Z#
1W#
1R#
0P#
1I#
0g#
0'#
0,"
1w"
1g#
0d#
0\#
0R#
0*#
1{
1M
0(#
1z
0x
12
05
#110000
0!
1N
0/!
00!
0w
04
#115000
1!
0N
1/!
10!
1w
14
0%$
0t#
13"
01!
1u#
0l!
04"
12"
1v#
1m!
05"
1w#
1,"
1x#
1.!
11
#120000
0!
1N
0/!
00!
0w
04
#125000
1!
0N
1/!
10!
1w
14
0$$
1%$
1#$
1t#
18#
16#
1l!
14"
03"
11!
1n!
0m!
0u#
1G#
09#
1p#
07#
0n!
1m!
15"
04"
02"
0q!
0o!
0,"
0v#
1H#
0g#
1c#
1^#
1Z#
0W#
1S#
0I#
1D#
1=#
1q#
0G#
19#
1q!
1o!
1,"
05"
1r!
1p!
0w#
1f#
1P#
0H#
1g#
0^#
0S#
0D#
0=#
0r!
0p!
1s!
1a#
1r#
0g#
1R#
0f#
1d#
0c#
1\#
0Z#
1W#
0P#
1I#
0s!
1*!
1-!
1,
10
0x#
0a#
1g#
0d#
0\#
0R#
0.!
0*!
01
0,
#130000
0!
1N
0/!
00!
0w
04
#135000
1!
0N
1/!
10!
1w
14
0%$
0t#
1k"
13"
01!
1u#
14"
12"
1v#
15"
1w#
1x#
1.!
11
#140000
0!
1N
0/!
00!
0w
04
#145000
1!
0N
1/!
10!
1w
14
1$$
1%$
1t#
0[#
1V#
06#
0t"
0k"
1-"
0l!
04"
03"
11!
0u#
0p#
17#
0u"
1m"
1n!
0m!
05"
1l!
14"
02"
0v#
0q#
1v"
1i#
0r"
0q!
0o!
0,"
0n!
1m!
15"
0w#
1'#
0y"
0v"
1r!
1p!
1q!
1o!
1,"
0r#
0w"
1z"
0'#
1s!
0r!
0p!
1*#
0-!
0{
00
0M
0x#
1(#
1w"
0)#
0s!
0z
0.!
1x
1{
02
01
15
1M
0(#
1y
0x
1I
05
#150000
0!
1N
0/!
00!
0w
04
